{
	"response": {
		"status": "ok",
		"userTier": "developer",
		"total": 2383174,
		"startIndex": 1,
		"pageSize": 10,
		"currentPage": 1,
		"pages": 238318,
		"orderBy": "newest",
		"results": [{
			"id": "football/live/2022/oct/29/brighton-v-chelsea-newcastle-v-aston-villa-premier-league-live",
			"type": "liveblog",
			"sectionId": "football",
			"sectionName": "Football",
			"webPublicationDate": "2022-10-29T14:31:16Z",
			"webTitle": "Brighton v Chelsea, Newcastle v Aston Villa: Premier League – live",
			"webUrl": "https://www.theguardian.com/football/live/2022/oct/29/brighton-v-chelsea-newcastle-v-aston-villa-premier-league-live",
			"apiUrl": "https://content.guardianapis.com/football/live/2022/oct/29/brighton-v-chelsea-newcastle-v-aston-villa-premier-league-live",
			"fields": {
				"thumbnail": "https://media.guim.co.uk/0336c07d050be410bed406809e863f2dcec06bbc/0_111_3794_2277/500.jpg"
			},
			"isHosted": false,
			"pillarId": "pillar/sport",
			"pillarName": "Sport"
		}, {
			"id": "world/live/2022/oct/29/russia-ukraine-war-live-moscow-says-draft-completed-un-chief-appeals-for-renewed-grain-deal",
			"type": "liveblog",
			"sectionId": "world",
			"sectionName": "World news",
			"webPublicationDate": "2022-10-29T14:30:56Z",
			"webTitle": "Russia-Ukraine war live: UK says Russia peddling false claims over gas pipeline blasts",
			"webUrl": "https://www.theguardian.com/world/live/2022/oct/29/russia-ukraine-war-live-moscow-says-draft-completed-un-chief-appeals-for-renewed-grain-deal",
			"apiUrl": "https://content.guardianapis.com/world/live/2022/oct/29/russia-ukraine-war-live-moscow-says-draft-completed-un-chief-appeals-for-renewed-grain-deal",
			"fields": {
				"thumbnail": "https://media.guim.co.uk/9c51164d2edbaf1a1ba3b39ee1561ad282507384/0_576_8640_5184/500.jpg"
			},
			"isHosted": false,
			"pillarId": "pillar/news",
			"pillarName": "News"
		}, {
			"id": "sport/live/2022/oct/29/england-greece-rugby-league-world-cup-live-score-updates",
			"type": "liveblog",
			"sectionId": "sport",
			"sectionName": "Sport",
			"webPublicationDate": "2022-10-29T14:30:43Z",
			"webTitle": "England v Greece: Rugby League World Cup – live",
			"webUrl": "https://www.theguardian.com/sport/live/2022/oct/29/england-greece-rugby-league-world-cup-live-score-updates",
			"apiUrl": "https://content.guardianapis.com/sport/live/2022/oct/29/england-greece-rugby-league-world-cup-live-score-updates",
			"fields": {
				"thumbnail": "https://media.guim.co.uk/76476791a14fb7a6e4384ef8e0773c41ab60b8a5/0_139_4638_2784/500.jpg"
			},
			"isHosted": false,
			"pillarId": "pillar/sport",
			"pillarName": "Sport"
		}, {
			"id": "world/2022/oct/29/desert-bloomed-in-chile-atacama-driest-place-on-earth",
			"type": "article",
			"sectionId": "world",
			"sectionName": "World news",
			"webPublicationDate": "2022-10-29T14:24:44Z",
			"webTitle": "How a desert bloomed in the driest place on earth",
			"webUrl": "https://www.theguardian.com/world/2022/oct/29/desert-bloomed-in-chile-atacama-driest-place-on-earth",
			"apiUrl": "https://content.guardianapis.com/world/2022/oct/29/desert-bloomed-in-chile-atacama-driest-place-on-earth",
			"fields": {
				"thumbnail": "https://media.guim.co.uk/7b6d9b1fc9adf7c5ebc694165fe2e9b5cba0abb2/0_271_5065_3039/500.jpg"
			},
			"isHosted": false,
			"pillarId": "pillar/news",
			"pillarName": "News"
		}, {
			"id": "film/2022/oct/29/triangle-of-sadness-review-glossy-satire-on-the-ultra-wealthy",
			"type": "article",
			"sectionId": "film",
			"sectionName": "Film",
			"webPublicationDate": "2022-10-29T14:00:02Z",
			"webTitle": "Triangle of Sadness review – glossy satire on the ultra wealthy ",
			"webUrl": "https://www.theguardian.com/film/2022/oct/29/triangle-of-sadness-review-glossy-satire-on-the-ultra-wealthy",
			"apiUrl": "https://content.guardianapis.com/film/2022/oct/29/triangle-of-sadness-review-glossy-satire-on-the-ultra-wealthy",
			"fields": {
				"thumbnail": "https://media.guim.co.uk/8e28dd3f4009cd1d7479cce02b16fa4ddbceec14/2870_351_11327_6799/500.jpg"
			},
			"isHosted": false,
			"pillarId": "pillar/arts",
			"pillarName": "Arts"
		}, {
			"id": "lifeandstyle/2022/oct/29/portmeirion-to-coleg-harlech-an-architectural-odyssey-in-north-west-wales",
			"type": "article",
			"sectionId": "lifeandstyle",
			"sectionName": "Life and style",
			"webPublicationDate": "2022-10-29T14:00:02Z",
			"webTitle": "Portmeirion to Coleg Harlech: an architectural odyssey in north-west Wales",
			"webUrl": "https://www.theguardian.com/lifeandstyle/2022/oct/29/portmeirion-to-coleg-harlech-an-architectural-odyssey-in-north-west-wales",
			"apiUrl": "https://content.guardianapis.com/lifeandstyle/2022/oct/29/portmeirion-to-coleg-harlech-an-architectural-odyssey-in-north-west-wales",
			"fields": {
				"thumbnail": "https://media.guim.co.uk/6673ec3baaf33d1f5831c442551f6bec8a979251/0_529_8688_5213/500.jpg"
			},
			"isHosted": false,
			"pillarId": "pillar/lifestyle",
			"pillarName": "Lifestyle"
		}, {
			"id": "technology/2022/oct/29/privacy-problem-tech-enhancing-data-political-legal",
			"type": "article",
			"sectionId": "technology",
			"sectionName": "Technology",
			"webPublicationDate": "2022-10-29T14:00:02Z",
			"webTitle": "Can a new form of cryptography solve the internet’s privacy problem?",
			"webUrl": "https://www.theguardian.com/technology/2022/oct/29/privacy-problem-tech-enhancing-data-political-legal",
			"apiUrl": "https://content.guardianapis.com/technology/2022/oct/29/privacy-problem-tech-enhancing-data-political-legal",
			"fields": {
				"thumbnail": "https://media.guim.co.uk/cb74a6f377a5fd92493768f49f81f3086990d189/0_0_5000_3000/500.jpg"
			},
			"isHosted": false,
			"pillarId": "pillar/news",
			"pillarName": "News"
		}, {
			"id": "politics/2022/oct/29/rishi-sunak-hires-itv-head-of-uk-news-amber-de-botton-as-communications-chief",
			"type": "article",
			"sectionId": "politics",
			"sectionName": "Politics",
			"webPublicationDate": "2022-10-29T13:57:17Z",
			"webTitle": "Rishi Sunak hires ITV head of UK news as communications chief",
			"webUrl": "https://www.theguardian.com/politics/2022/oct/29/rishi-sunak-hires-itv-head-of-uk-news-amber-de-botton-as-communications-chief",
			"apiUrl": "https://content.guardianapis.com/politics/2022/oct/29/rishi-sunak-hires-itv-head-of-uk-news-amber-de-botton-as-communications-chief",
			"fields": {
				"thumbnail": "https://media.guim.co.uk/925499655e9dc4e171bb89edb55dd77af61cf466/0_117_3500_2100/500.jpg"
			},
			"isHosted": false,
			"pillarId": "pillar/news",
			"pillarName": "News"
		}, {
			"id": "football/live/2022/oct/29/leicester-manchester-city-premier-league-live-score-updates",
			"type": "liveblog",
			"sectionId": "football",
			"sectionName": "Football",
			"webPublicationDate": "2022-10-29T13:51:29Z",
			"webTitle": "Leicester 0-1 Manchester City: Premier League – as it happened",
			"webUrl": "https://www.theguardian.com/football/live/2022/oct/29/leicester-manchester-city-premier-league-live-score-updates",
			"apiUrl": "https://content.guardianapis.com/football/live/2022/oct/29/leicester-manchester-city-premier-league-live-score-updates",
			"fields": {
				"thumbnail": "https://media.guim.co.uk/bfcb6972f1c1d48e43b469bdca0c41ed64e6ca0b/425_346_2849_1710/500.jpg"
			},
			"isHosted": false,
			"pillarId": "pillar/sport",
			"pillarName": "Sport"
		}, {
			"id": "business/2022/oct/29/brexit-red-tape-puts-brakes-on-uk-innovation-and-eu-sales",
			"type": "article",
			"sectionId": "business",
			"sectionName": "Business",
			"webPublicationDate": "2022-10-29T13:49:26Z",
			"webTitle": "Brexit red tape puts brakes on UK innovation and EU sales",
			"webUrl": "https://www.theguardian.com/business/2022/oct/29/brexit-red-tape-puts-brakes-on-uk-innovation-and-eu-sales",
			"apiUrl": "https://content.guardianapis.com/business/2022/oct/29/brexit-red-tape-puts-brakes-on-uk-innovation-and-eu-sales",
			"fields": {
				"thumbnail": "https://media.guim.co.uk/d847af0d914fa14f30e9097d3130f597f9548aef/179_5_4727_2836/500.jpg"
			},
			"isHosted": false,
			"pillarId": "pillar/news",
			"pillarName": "News"
		}]
	}
}